<svg width="65" height="100" viewBox="0 0 65 100" fill="none" xmlns="http://www.w3.org/2000/svg">
<g opacity="0.2">
<path d="M24.1417 21.4375C16.687 29.0379 12.5815 39.0854 12.5815 49.7289C12.5815 55.827 13.908 61.6894 16.5243 67.1534C16.7752 67.6771 17.2975 67.983 17.8418 67.983C18.0532 67.983 18.2678 67.9369 18.4712 67.8396C19.1982 67.4914 19.5053 66.6198 19.1572 65.8927C16.7308 60.8257 15.5007 55.3873 15.5007 49.7291C15.5007 39.8547 19.3096 30.5331 26.2257 23.4818C26.7901 22.9062 26.7812 21.9822 26.2057 21.4178C25.6302 20.8531 24.7062 20.862 24.1417 21.4375Z" fill="black"/>
<path d="M24.5015 22.5L17.0015 15" stroke="black" stroke-width="3" stroke-linecap="round"/>
<path d="M17.0015 85.5L24.5015 78" stroke="black" stroke-width="3" stroke-linecap="round"/>
<path d="M1.99984 47L9 47" stroke="black" stroke-width="3" stroke-linecap="round"/>
<path d="M22.1944 71.1095C21.7339 70.448 20.8247 70.2845 20.1627 70.745C19.501 71.2054 19.3379 72.115 19.7981 72.7767C21.0948 74.6404 22.5561 76.405 24.1416 78.0214C24.4275 78.3127 24.8054 78.4589 25.1838 78.4589C25.5525 78.4589 25.9217 78.3199 26.2056 78.0412C26.7811 77.4769 26.7901 76.5527 26.2257 75.9772C24.7544 74.4772 23.398 72.8395 22.1944 71.1095Z" fill="black"/>
<path d="M63.437 46.0719C63.1706 45.3112 62.3382 44.9105 61.5769 45.1767C60.8162 45.4432 60.4153 46.2757 60.6815 47.0366C60.9853 47.9038 61.1392 48.8099 61.1392 49.7302C61.1392 54.2245 57.4829 57.8808 52.9888 57.8808C48.4945 57.8808 44.8382 54.2245 44.8382 49.7302C44.8382 48.338 45.1897 47.0265 45.8078 45.8789L52.0798 50.8722C52.3484 51.086 52.6691 51.19 52.9879 51.19C53.4172 51.19 53.8426 51.0014 54.1306 50.6394C54.6327 50.0087 54.5286 49.0905 53.8979 48.5884L47.6291 43.5977C49.0632 42.3427 50.938 41.5798 52.989 41.5798C54.5661 41.5798 56.0977 42.0328 57.4179 42.8899C58.094 43.3287 58.998 43.1367 59.437 42.4604C59.8758 41.7843 59.6836 40.8804 59.0075 40.4415C57.2126 39.2764 55.1317 38.6607 52.989 38.6607C50.0137 38.6607 47.3109 39.8427 45.3197 41.7592L29.7144 29.3358C29.0837 28.8337 28.1655 28.938 27.6634 29.5685C27.1613 30.1993 27.2657 31.1174 27.8962 31.6195L43.4978 44.04C42.4963 45.7039 41.9191 47.6508 41.9191 49.7304C41.9191 55.8343 46.8849 60.8001 52.9888 60.8001C59.0925 60.8001 64.0584 55.8343 64.0584 49.7304C64.0586 48.4806 63.8494 47.2499 63.437 46.0719Z" fill="black"/>
<path d="M30.9566 18.8679C31.7627 18.8679 32.4162 18.2144 32.4162 17.4083V10.7426H36.9074C37.7136 10.7426 38.3669 10.0891 38.3669 9.28303C38.3669 8.47696 37.7136 7.82346 36.9074 7.82346H32.4162V2.91913H37.4208C38.227 2.91913 38.8803 2.26563 38.8803 1.45957C38.8803 0.653496 38.227 0 37.4208 0H30.9566C30.1506 0 29.4971 0.653496 29.4971 1.45957V17.4083C29.4971 18.2144 30.1506 18.8679 30.9566 18.8679Z" fill="black"/>
<path d="M37.7261 83.675C38.5324 83.675 39.1857 83.0215 39.1857 82.2154C39.1857 81.4094 38.5324 80.7559 37.7261 80.7559H31.0182C30.2121 80.7559 29.5586 81.4094 29.5586 82.2154V98.1352C29.5586 98.9413 30.2121 99.5948 31.0182 99.5948H37.7261C38.5324 99.5948 39.1857 98.9413 39.1857 98.1352C39.1857 97.3291 38.5324 96.6756 37.7261 96.6756H32.4777V91.6349H37.2316C38.0379 91.6349 38.6912 90.9814 38.6912 90.1753C38.6912 89.3692 38.0379 88.7157 37.2316 88.7157H32.4777V83.675H37.7261Z" fill="black"/>
</g>
</svg>
