<svg width="66" height="52" viewBox="0 0 66 52" fill="none" xmlns="http://www.w3.org/2000/svg">
<path d="M17.6943 38.3927L36.8841 38.8713L43.1943 36.2197M51.6943 27.528L52.6356 23.6479C52.9883 22.1943 52.7111 20.6593 51.8722 19.4209L44.7802 8.95093M40.6076 10.4853C41.3137 15.5999 41.2621 27.6564 35.4076 32.1759C35.3685 32.2609 31.9255 32.2433 28.9817 32.2096C27.5346 32.1931 26.3106 31.1397 26.0709 29.7125L24.8798 22.6209M7.69399 21.0092C2.94362 21.5672 -0.245263 29.9977 2.19417 36.763" stroke="#3C77E9" stroke-width="2.5"/>
<path d="M17.3391 37.9647C17.3391 42.651 13.8658 46.2697 9.79457 46.2697C5.72339 46.2697 2.25 42.651 2.25 37.9647C2.25 33.2783 5.72339 29.6597 9.79457 29.6597C13.8658 29.6597 17.3391 33.2783 17.3391 37.9647Z" stroke="#3C77E9" stroke-width="2.5"/>
<path d="M61.2966 33.4313C63.7252 38.0014 62.284 43.8452 58.0776 46.4837C53.8712 49.1222 48.4925 47.5564 46.064 42.9863" stroke="#3C77E9" stroke-width="2.5"/>
<path d="M44.226 43.4947C42.0812 38.1932 43.9334 31.9421 48.5677 29.0351C53.202 26.1282 59.1109 27.5109 62.2644 32.1798L44.226 43.4947Z" stroke="#3C77E9" stroke-width="2.5"/>
<mask id="path-5-inside-1" fill="white">
<ellipse cx="9.79461" cy="37.9647" rx="2.37518" ry="2.58055"/>
</mask>
<path d="M9.66979 37.9647C9.66979 38.0527 9.63792 38.0928 9.63467 38.0964C9.63377 38.0973 9.64508 38.0847 9.67524 38.0708C9.70794 38.0558 9.75073 38.0453 9.79461 38.0453V43.0453C12.6782 43.0453 14.6698 40.5714 14.6698 37.9647H9.66979ZM9.79461 38.0453C9.83849 38.0453 9.88129 38.0558 9.91398 38.0708C9.94414 38.0847 9.95545 38.0973 9.95455 38.0964C9.9513 38.0928 9.91943 38.0527 9.91943 37.9647H4.91943C4.91943 40.5714 6.91098 43.0453 9.79461 43.0453V38.0453ZM9.91943 37.9647C9.91943 37.8767 9.9513 37.8366 9.95455 37.833C9.95545 37.8321 9.94414 37.8447 9.91398 37.8586C9.88129 37.8736 9.83849 37.8842 9.79461 37.8842V32.8842C6.91098 32.8842 4.91943 35.358 4.91943 37.9647H9.91943ZM9.79461 37.8842C9.75073 37.8842 9.70794 37.8736 9.67524 37.8586C9.64508 37.8447 9.63377 37.8321 9.63467 37.833C9.63792 37.8366 9.66979 37.8767 9.66979 37.9647H14.6698C14.6698 35.358 12.6782 32.8842 9.79461 32.8842V37.8842Z" fill="#3C77E9" mask="url(#path-5-inside-1)"/>
<rect x="4.94629" y="12.7815" width="23.9479" height="8.51964" rx="4.25982" stroke="#3C77E9" stroke-width="2.5"/>
<path d="M37.9588 8.13719L39.1245 7.68596H39.1245L37.9588 8.13719ZM41.7311 9.87597L42.1452 11.0554L41.7311 9.87597ZM46.6766 8.13955L46.2625 6.96013L46.6766 8.13955ZM48.4907 4.2972L47.3169 4.72691L47.3169 4.72691L48.4907 4.2972ZM48.1704 3.42227L49.3442 2.99256V2.99256L48.1704 3.42227ZM44.7585 1.52631L44.5034 0.30261L44.7585 1.52631ZM31.3011 3.05429C30.6253 3.19515 30.1916 3.85721 30.3324 4.53304C30.4733 5.20888 31.1354 5.64256 31.8112 5.5017L31.3011 3.05429ZM34.9482 3.82255L36.793 8.58843L39.1245 7.68596L37.2796 2.92008L34.9482 3.82255ZM42.1452 11.0554L47.0907 9.31896L46.2625 6.96013L41.317 8.69656L42.1452 11.0554ZM49.6645 3.8675L49.3442 2.99256L46.9966 3.85197L47.3169 4.72691L49.6645 3.8675ZM44.5034 0.30261L31.3011 3.05429L31.8112 5.5017L45.0135 2.75002L44.5034 0.30261ZM49.3442 2.99256C48.6217 1.01889 46.561 -0.126232 44.5034 0.30261L45.0135 2.75002C45.8564 2.57434 46.7006 3.04345 46.9966 3.85197L49.3442 2.99256ZM47.0907 9.31896C49.3182 8.53687 50.4761 6.0844 49.6645 3.8675L47.3169 4.72691C47.6493 5.63508 47.175 6.63974 46.2625 6.96013L47.0907 9.31896ZM36.793 8.58843C37.6185 10.7209 39.9877 11.8129 42.1452 11.0554L41.317 8.69656C40.4332 9.00689 39.4626 8.55953 39.1245 7.68596L36.793 8.58843Z" fill="#3C77E9"/>
</svg>
